id,name,model_id:id,group_id:id,perm_read,perm_write,perm_create,perm_unlink
access_hr_travel_order_user,hr_travel_order,model_hr_travel_order,hr_holidays.group_hr_holidays_user,1,1,1,0
access_hr_travel_order_approver,hr_travel_order,model_hr_travel_order,base.group_user,1,1,1,0
access_hr_coc_user,hr_travel_order.hr_compensatory_ot_credit,model_hr_compensatory_ot_credit,base.group_user,1,1,1,0
access_hr_employee_document_user,hr.document_employee,oh_employee_documents_expiry.model_hr_employee_document,base.group_user,1,1,1,0