id,minrange,maxrange,eeshare,ershare,dateeffect,active
hr_philhealth_table_1,0.00,10000.00,137.50,137.50,2018-01-01,TRUE
hr_philhealth_table_2,10000.01,39999.99,137.50,137.50,2018-01-01,TRUE
hr_philhealth_table_3,40000.00,999999.99,550,550,2018-01-01,TRUE
