id,status_code,name
hr_tax_status_1,Z,Zero Exemption
hr_tax_status_2,S/ME,Single/Married
hr_tax_status_3,ME1 / S1,Married/Single w/ 1 Dependent
hr_tax_status_4,ME2 / S2,Married/Single w/ 2 Dependents
hr_tax_status_5,ME3 / S3,Married/Single w/ 3 Dependents
hr_tax_status_6,ME4 / S4,Married/Single w/ 4 Dependents
