id,name,model_id:id,group_id:id,perm_read,perm_write,perm_create,perm_unlink
access_hr_holiday_hr_leave_type_late_matrix_user,access.hr_holidays.hr_leave_type_late_matrix_user,model_hr_leave_type_late_matrix,base.group_user,1,0,0,0
access_hr_holiday_hr_leave_type_late_matrix_manager,access.hr_holidays.hr_leave_type_late_matrix_manager,model_hr_leave_type_late_matrix,hr_holidays.group_hr_holidays_user,1,1,1,1
access_hr_holidays_validators_oic_manager,hr_holidays_validators_oic_manager,model_hr_holidays_validators_oic_manager,hr_holidays.group_hr_holidays_user,1,1,1,1
access_hr_holidays_validators_oic_manager_user,hr_holidays_validators_oic_manager_user,model_hr_holidays_validators_oic_manager,base.group_user,1,0,0,0