id,name,model_id:id,group_id:id,perm_read,perm_write,perm_create,perm_unlink
access_hr_permit_user,hr_permit_employee.hr_permit,model_hr_permit,base.group_user,1,1,1,0
access_hr_permit_type_user,hr_permit_employee.hr_permit_type,model_hr_permit_type,base.group_user,1,1,1,0
access_hr_permit_type_manager,hr_permit_employee.hr_permit_type,model_hr_permit_type,hr.group_hr_user,1,1,1,0
access_hr_permit_type_hr_manager,hr_permit_employee.hr_permit_type,model_hr_permit_type,hr_holidays.group_hr_holidays_manager,1,1,1,0
access_hr_permit_validation_status_manager,hr_permit_employee.hr_permit_validation,model_permit_validation_status,hr_holidays.group_hr_holidays_manager,1,1,1,1
access_hr_permit_validators_holidays_manager,hr_permit_employee.hr_permit_validators_manager,model_hr_permit_validators,hr_holidays.group_hr_holidays_manager,1,1,1,1
access_hr_permit_validators_holidays_user,hr_permit_employee.hr_permit_validators_user,model_hr_permit_validators,base.group_user,1,1,0,0
access_hr_permit_permit_validation_status_user,hr_permit_employee.hr_permit_validation_status_user,model_permit_validation_status,base.group_user,1,1,0,0
access_hr_permit_manager,hr_holidays.manager,model_hr_permit,hr_holidays.group_hr_holidays_manager,1,1,1,1
access_hr_permit_permit_validation_status_hr_permit_user,hr_permit_user,model_permit_validation_status,hr_holidays.group_hr_holidays_user,1,1,1,1
access_hr_permit_hr_permit_user_create,hr_permit_user_create,model_permit_validation_status,base.group_user,1,1,1,0