id,name,model_id:id,group_id:id,perm_read,perm_write,perm_create,perm_unlink
access_special_payroll_special_payroll,special_payroll.special_payroll,model_special_payroll,base.group_user,1,1,1,1
access_hr_special_payroll_special_payroll,hr_special_payroll.hr_special_payroll,model_hr_payslip_special_payroll,base.group_user,1,1,1,1
access_hr_deductions_payroll_special_payroll,hr_deductions_payroll.hr_deductions_payroll,model_hr_deductions_special_payroll,base.group_user,1,1,1,1