id,name,model_id:id,group_id:id,perm_read,perm_write,perm_create,perm_unlink
access_document_employee_document_type_user,hr_document_request.hr_employee_document_type_user,oh_employee_documents_expiry.model_document_type,base.group_user,1,0,0,0
access_document_employee_document_user,hr_document_request.hr_employee_document_user,model_hr_employee_document,base.group_user,1,0,0,0
access_document_checklist_user,hr_document_request.hr_document_checklist_user,model_hr_document_checklist,base.group_user,1,0,0,0
access_document_checklist_manager,hr_document_request.hr_document_checklist_manager,model_hr_document_checklist,hr.group_hr_user,1,1,1,0
access_employee_document_request_user,hr_document_request.hr_document_employee_document_request_user,model_hr_employee_document_request,base.group_user,1,1,1,0