id,name,model_id:id,group_id:id,perm_read,perm_write,perm_create,perm_unlink
access_user_total_leave_credit,base_user_total_leave_credit,model_total_leave_credit,base.group_user,1,0,0,0
access_user_hr_leave_card_summary_user,hr_leave_card_summary,model_hr_leave_card_summary,base.group_user,1,0,0,0
access_all_approver_total_leave_credit,base_all_approver_total_leave_credit,model_total_leave_credit,hr_holidays.group_hr_holidays_user,1,1,1,0
access_group_hr_holidays_manager_total_leave_credit,group_hr_holidays_manager_total_leave_credit,model_total_leave_credit,hr_holidays.group_hr_holidays_manager,1,1,1,1
