id,name,model_id:id,group_id:id,perm_read,perm_write,perm_create,perm_unlink
access_hr_training_checklist_user,hr_training_request.hr_training_checklist,model_hr_training_checklist,base.group_user,1,0,0,0
access_hr_training_checklist_manager,hr_training_request.hr_training_checklist_manager,model_hr_training_checklist,hr.group_hr_user,1,1,1,0
access_hr_employee_training_request_user,hr_training_request.hr_employee_training_request,model_hr_employee_training_request,base.group_user,1,1,1,0
access_hr_training_document_request_user,hr_training_request.hr_training_document_request,model_hr_training_document_request,hr.group_hr_user,1,1,1,0
access_hr_training_document_upload_user,hr_training_request.hr_training_document_upload,model_hr_training_document_upload,hr.group_hr_user,1,1,1,0
access_hr_training_document_employee_upload_user,hr_training_request.hr_training_document_employee_upload,model_hr_training_document_employee_upload,base.group_user,1,1,1,0
access_hr_training_req_purpose_user,hr_training_request.hr_training_req_purpose,model_hr_training_request_purpose,base.group_user,1,0,0,0
access_hr_training_req_competency_user,hr_training_request.hr_training_req_competency,model_hr_training_request_competency,base.group_user,1,1,1,1
access_hr_training_req_hr_training_document_upload_employee_user,hr_training_request.hr_hr_training_document_upload_employee,model_hr_training_document_upload_employee,base.group_user,1,1,1,1
